post('http://116.203.92.59/api/send_message', json={"key" : "146913a17eba125587d201a30291fc0fc4307af815ddedfc", "phone_no": "087884494009", "message" : "Apa Kabar"})

from requests import post
post('http://116.203.92.59/api/send_message', json={"key" : "146913a17eba125587d201a30291fc0fc4307af815ddedfc", "phone_no": "087884494009", "message" : "Apak Kabar?<ENTER>Apakah penjualan produk sudah melebihi target?"})